<?xml version="1.0" encoding="utf-8" standalone="no"?><!DOCTYPE svg PUBLIC "-//W3C//DTD SVG 20010904//EN" "http://www.w3.org/TR/2001/REC-SVG-20010904/DTD/svg10.dtd"><svg xmlns="http://www.w3.org/2000/svg" width="566" height="431" xmlns:xlink="http://www.w3.org/1999/xlink"><source><![CDATA[Training-->pyPhases: need: dataset-training
Note over pyPhases: Data does not exist
pyPhases-->BuildDataset: get: dataset-training
BuildDataset->Training: dataset-traing
Training-->pyPhases: need: dataset-training
Note over pyPhases: Data exist
pyPhases->Training: dataset-traing]]></source><desc></desc><defs><marker viewBox="0 0 5 5" markerWidth="5" markerHeight="5" orient="auto" refX="5" refY="2.5" id="markerArrowBlock"><path d="M 0 0 L 5 2.5 L 0 5 z"></path></marker><marker viewBox="0 0 9.6 16" markerWidth="4" markerHeight="16" orient="auto" refX="9.6" refY="8" id="markerArrowOpen"><path d="M 9.6,8 1.92,16 0,13.7 5.76,8 0,2.286 1.92,0 9.6,8 z"></path></marker></defs><g class="title"></g><g class="actor"><rect x="10" y="20" width="90.4000015258789" height="39" style="stroke-width: 2px;" stroke="#000000" fill="#ffffff"></rect><text x="20" y="45" style="font-size: 16px; font-family: Andale Mono, monospace;"><tspan x="20">Training</tspan></text></g><g class="actor"><rect x="10" y="372" width="90.4000015258789" height="39" style="stroke-width: 2px;" stroke="#000000" fill="#ffffff"></rect><text x="20" y="397" style="font-size: 16px; font-family: Andale Mono, monospace;"><tspan x="20">Training</tspan></text></g><line x1="55.20000076293945" x2="55.20000076293945" y1="59" y2="372" style="stroke-width: 2px;" stroke="#000000" fill="none"></line><g class="actor"><rect x="223.60000610351562" y="20" width="90.4000015258789" height="39" style="stroke-width: 2px;" stroke="#000000" fill="#ffffff"></rect><text x="233.60000610351562" y="45" style="font-size: 16px; font-family: Andale Mono, monospace;"><tspan x="233.60000610351562">pyPhases</tspan></text></g><g class="actor"><rect x="223.60000610351562" y="372" width="90.4000015258789" height="39" style="stroke-width: 2px;" stroke="#000000" fill="#ffffff"></rect><text x="233.60000610351562" y="397" style="font-size: 16px; font-family: Andale Mono, monospace;"><tspan x="233.60000610351562">pyPhases</tspan></text></g><line x1="268.8000068664551" x2="268.8000068664551" y1="59" y2="372" style="stroke-width: 2px;" stroke="#000000" fill="none"></line><g class="actor"><rect x="410.80001068115234" y="20" width="125.5999984741211" height="39" style="stroke-width: 2px;" stroke="#000000" fill="#ffffff"></rect><text x="420.80001068115234" y="45" style="font-size: 16px; font-family: Andale Mono, monospace;"><tspan x="420.80001068115234">BuildDataset</tspan></text></g><g class="actor"><rect x="410.80001068115234" y="372" width="125.5999984741211" height="39" style="stroke-width: 2px;" stroke="#000000" fill="#ffffff"></rect><text x="420.80001068115234" y="397" style="font-size: 16px; font-family: Andale Mono, monospace;"><tspan x="420.80001068115234">BuildDataset</tspan></text></g><line x1="473.6000099182129" x2="473.6000099182129" y1="59" y2="372" style="stroke-width: 2px;" stroke="#000000" fill="none"></line><g class="signal"><text x="65.20000076293945" y="89.5" style="font-size: 16px; font-family: Andale Mono, monospace;"><tspan x="65.20000076293945">need: dataset-training</tspan></text><line x1="55.20000076293945" x2="268.8000068664551" y1="98" y2="98" style="stroke-width: 2px; stroke-dasharray: 6px, 2px; marker-end: url(&quot;#markerArrowBlock&quot;);" stroke="#000000" fill="none"></line></g><g class="note"><rect x="180.20000839233398" y="118" width="177.1999969482422" height="29" style="stroke-width: 2px;" stroke="#000000" fill="#ffffff"></rect><text x="185.20000839233398" y="138" style="font-size: 16px; font-family: Andale Mono, monospace;"><tspan x="185.20000839233398">Data does not exist</tspan></text></g><g class="signal"><text x="278.8000068664551" y="177.5" style="font-size: 16px; font-family: Andale Mono, monospace;"><tspan x="278.8000068664551">get: dataset-training</tspan></text><line x1="268.8000068664551" x2="473.6000099182129" y1="186" y2="186" style="stroke-width: 2px; stroke-dasharray: 6px, 2px; marker-end: url(&quot;#markerArrowBlock&quot;);" stroke="#000000" fill="none"></line></g><g class="signal"><text x="202.80000686645508" y="216.5" style="font-size: 16px; font-family: Andale Mono, monospace;"><tspan x="202.80000686645508">dataset-traing</tspan></text><line x1="473.6000099182129" x2="55.20000076293945" y1="225" y2="225" style="stroke-width: 2px; marker-end: url(&quot;#markerArrowBlock&quot;);" stroke="#000000" fill="none"></line></g><g class="signal"><text x="65.20000076293945" y="255.5" style="font-size: 16px; font-family: Andale Mono, monospace;"><tspan x="65.20000076293945">need: dataset-training</tspan></text><line x1="55.20000076293945" x2="268.8000068664551" y1="264" y2="264" style="stroke-width: 2px; stroke-dasharray: 6px, 2px; marker-end: url(&quot;#markerArrowBlock&quot;);" stroke="#000000" fill="none"></line></g><g class="note"><rect x="219.80000686645508" y="284" width="98" height="29" style="stroke-width: 2px;" stroke="#000000" fill="#ffffff"></rect><text x="224.80000686645508" y="304" style="font-size: 16px; font-family: Andale Mono, monospace;"><tspan x="224.80000686645508">Data exist</tspan></text></g><g class="signal"><text x="100.40000534057617" y="343.5" style="font-size: 16px; font-family: Andale Mono, monospace;"><tspan x="100.40000534057617">dataset-traing</tspan></text><line x1="268.8000068664551" x2="55.20000076293945" y1="352" y2="352" style="stroke-width: 2px; marker-end: url(&quot;#markerArrowBlock&quot;);" stroke="#000000" fill="none"></line></g></svg>